Warning: Permanently added '10.128.0.85' (ECDSA) to the list of known hosts.
Warning: Permanently added '10.128.0.86' (ECDSA) to the list of known hosts.
Warning: Permanently added '10.128.0.87' (ECDSA) to the list of known hosts.
